C:\Users\veronique.lefrançois\repositories\demo\src\main\java\com\example\test\demo\DemoApplication.java
C:\Users\veronique.lefrançois\repositories\demo\src\main\java\com\example\springsecurity\controller\CustomerRestController.java
C:\Users\veronique.lefrançois\repositories\demo\src\main\java\com\example\springsecurity\models\Customer.java
C:\Users\veronique.lefrançois\repositories\demo\src\main\java\com\example\springsecurity\config\JdbcConfig.java
C:\Users\veronique.lefrançois\repositories\demo\src\main\java\com\example\springsecurity\repositories\CustomerRepository.java
